JT: 1 101 102 103; 2 3
lam1: -1; 1
lam2: 2; -2
lam3: 3; -3
gamW1: -10 100; -1
lamW1: -11; -10
gamW3: -3 105; -30
lamW3: -30; -33
op1: 200 201; 100 101
op2: 203 205; 103 105
TOUT: -11 200 201 102 203 205; -2 -33
